3.934262e+06 1.313743e+06 5.316548e+05 7.630440e+05 1.258606e+05
8.564048e+05 2.039204e+05 8.253543e+04 2.229962e+05 1.935769e+04
3.435014e+05 7.881817e+04 3.179777e+04 9.392437e+04 7.433526e+03
1.837592e+05 4.147630e+04 1.667946e+04 5.194806e+04 3.889236e+03
1.100085e+05 2.449034e+04 9.839283e+03 3.153355e+04 2.291789e+03
7.183305e+04 1.576933e+04 6.331628e+03 2.082088e+04 1.473466e+03
4.999702e+04 1.082914e+04 4.345517e+03 1.464233e+04 1.010397e+03
3.646477e+04 7.799855e+03 3.128211e+03 1.077978e+04 7.267660e+02
2.756385e+04 5.828463e+03 2.336380e+03 8.217342e+03 5.423940e+02
2.143324e+04 4.484646e+03 1.796863e+03 6.438053e+03 4.168537e+02
1.705278e+04 3.533919e+03 1.415327e+03 5.157029e+03 3.281302e+02
1.382760e+04 2.840461e+03 1.137148e+03 4.207190e+03 2.634807e+02
1.139302e+04 2.321594e+03 9.290866e+02 3.485502e+03 2.151542e+02
9.516059e+03 1.924873e+03 7.700620e+02 2.925748e+03 1.782376e+02
8.042599e+03 1.615852e+03 6.462344e+02 2.483872e+03 1.495065e+02
6.867626e+03 1.371225e+03 5.482418e+02 2.129687e+03 1.267808e+02
5.917732e+03 1.174811e+03 4.695863e+02 1.841978e+03 1.085480e+02
5.140441e+03 1.015119e+03 4.056551e+02 1.605501e+03 9.373479e+01
4.497501e+03 8.838271e+02 3.531078e+02 1.409088e+03 8.156432e+01
3.960534e+03 7.747987e+02 3.094823e+02 1.244417e+03 7.146418e+01
3.508158e+03 6.834379e+02 2.729352e+02 1.105190e+03 6.300592e+01
3.124036e+03 6.062531e+02 2.420660e+02 9.865712e+02 5.586424e+01
2.795524e+03 5.405572e+02 2.157974e+02 8.848070e+02 4.978894e+01
2.512728e+03 4.842577e+02 1.932907e+02 7.969461e+02 4.458533e+01
2.267817e+03 4.357081e+02 1.738860e+02 7.206456e+02 4.010024e+01
2.054541e+03 3.935996e+02 1.570589e+02 6.540281e+02 3.621203e+01
1.867860e+03 3.568825e+02 1.423889e+02 5.955756e+02 3.282319e+01
1.703683e+03 3.247081e+02 1.295361e+02 5.440510e+02 2.985487e+01
1.558659e+03 2.963844e+02 1.182234e+02 4.984387e+02 2.724289e+01
1.430027e+03 2.713437e+02 1.082234e+02 4.578992e+02 2.493455e+01
1.315495e+03 2.491166e+02 9.934841e+01 4.217339e+02 2.288634e+01
1.213151e+03 2.293130e+02 9.144216e+01 3.893581e+02 2.106210e+01
1.121390e+03 2.116064e+02 8.437406e+01 3.602799e+02 1.943157e+01
1.038855e+03 1.957223e+02 7.803427e+01 3.340827e+02 1.796934e+01
9.643975e+02 1.814287e+02 7.232998e+01 3.104127e+02 1.665392e+01
8.970368e+02 1.685283e+02 6.718232e+01 2.889674e+02 1.546708e+01
8.359341e+02 1.568531e+02 6.252403e+01 2.694874e+02 1.439324e+01
7.803680e+02 1.462587e+02 5.829745e+01 2.517491e+02 1.341908e+01
7.297157e+02 1.366212e+02 5.445296e+01 2.355592e+02 1.253311e+01
6.834378e+02 1.278332e+02 5.094771e+01 2.207499e+02 1.172545e+01
