3.336996e+05 2.554577e+05 4.543187e+05 8.425679e+05 1.557387e+05
5.207023e+04 3.938295e+04 8.807984e+04 1.767243e+05 2.412306e+04
2.003983e+04 1.516338e+04 3.608096e+04 7.196468e+04 9.252989e+03
1.049736e+04 7.952920e+03 1.979065e+04 3.911228e+04 4.833354e+03
6.190931e+03 4.690192e+03 1.189714e+04 2.349597e+04 2.847416e+03
3.983669e+03 3.017217e+03 7.775225e+03 1.536581e+04 1.830659e+03
2.733933e+03 2.070139e+03 5.415550e+03 1.070973e+04 1.255318e+03
1.967992e+03 1.489801e+03 3.952155e+03 7.820755e+03 9.029275e+02
1.469786e+03 1.112393e+03 2.988998e+03 5.918318e+03 6.738617e+02
1.130343e+03 8.553044e+02 2.325249e+03 4.606577e+03 5.178905e+02
8.903042e+02 6.735376e+02 1.850755e+03 3.668372e+03 4.076611e+02
7.152969e+02 5.410398e+02 1.501251e+03 2.976967e+03 3.273415e+02
5.844051e+02 4.419594e+02 1.237321e+03 2.454604e+03 2.673015e+02
4.843654e+02 3.662456e+02 1.033771e+03 2.051568e+03 2.214371e+02
4.064694e+02 3.073006e+02 8.739277e+02 1.734944e+03 1.857423e+02
3.448268e+02 2.606618e+02 7.464280e+02 1.482290e+03 1.575084e+02
2.953494e+02 2.232326e+02 6.433246e+02 1.277907e+03 1.348565e+02
2.551349e+02 1.928148e+02 5.589353e+02 1.110565e+03 1.164529e+02
2.220818e+02 1.678172e+02 4.891164e+02 9.720719e+02 1.013327e+02
1.946412e+02 1.470667e+02 4.307931e+02 8.563477e+02 8.878453e+01
1.716533e+02 1.296854e+02 3.816480e+02 7.588081e+02 7.827621e+01
1.522371e+02 1.150063e+02 3.399102e+02 6.759483e+02 6.940358e+01
1.357149e+02 1.025164e+02 3.042088e+02 6.050551e+02 6.185579e+01
1.215590e+02 9.181638e+01 2.734706e+02 5.440033e+02 5.539096e+01
1.093543e+02 8.259210e+01 2.468462e+02 4.911112e+02 4.981881e+01
9.877088e+01 7.459393e+01 2.236575e+02 4.450350e+02 4.498820e+01
8.954434e+01 6.762176e+01 2.033577e+02 4.046915e+02 4.077799e+01
8.146077e+01 6.151379e+01 1.855026e+02 3.692002e+02 3.709024e+01
7.434591e+01 5.613819e+01 1.697285e+02 3.378402e+02 3.384518e+01
6.805677e+01 5.138681e+01 1.557358e+02 3.100171e+02 3.097736e+01
6.247516e+01 4.717027e+01 1.432756e+02 2.852375e+02 2.843272e+01
5.750288e+01 4.341427e+01 1.321401e+02 2.630894e+02 2.616633e+01
5.305774e+01 4.005670e+01 1.221550e+02 2.432266e+02 2.414061e+01
4.907069e+01 3.704530e+01 1.131731e+02 2.253571e+02 2.232398e+01
4.548332e+01 3.433595e+01 1.050694e+02 2.092330e+02 2.068974e+01
4.224605e+01 3.189114e+01 9.773752e+01 1.946428e+02 1.921524e+01
3.931655e+01 2.967887e+01 9.108619e+01 1.814055e+02 1.788114e+01
3.665857e+01 2.767175e+01 8.503705e+01 1.693654e+02 1.667087e+01
3.424089e+01 2.584617e+01 7.952242e+01 1.583882e+02 1.557018e+01
3.203656e+01 2.418177e+01 7.448366e+01 1.483573e+02 1.456676e+01
