5   -43.525	2.63E+12
10	-43.525	2.63E+12
11	-37.274	1.49E+10
12	-30.665	7.37E+09
13	-28.505	9.36E+09
14	-33.678	2.53E+10
15	-39.57	1.12E+11
16	-37.411	1.31E+11
17	-38.759	4.32E+11
18	-36.218	6.12E+11
19	-20.22	4.43E+10
20	-12.209	1.92E+10
21	-7.6087	7.50E+09
22	-5.2081	4.60E+09
23	-1.2008	3.44E+09
24	7.8017	1.62E+09
25	16.235	9.88E+08
26	25.026	5.11E+08
27	32.335	2.65E+08
28	38.274	1.43E+08
29	45.046	5.48E+07
30	50.468	1637.7
31	55.107	1390.2
32	59.436	1033.3
33	62.546	891.27
34	65.316	777.85
35	67.824	730.9
36	70.038	728.7
37	71.684	739.46
38	72.486	802.69
39	72.674	932.21
40	72.593	1142.9
41	72.727	1235.2
42	71.564	1616.3
43	70.103	1908.6
44	69.318	1954.7
45	68.504	2019.9
46	67.902	1997.2
47	67.956	1716.6
48	68.444	1361.5
49	68.083	1362.9
50	69.161	998.65
51	70.646	701.48
52	71.421	576.01
53	72.555	434.64
54	73.921	313.43
55	75.396	229.37
56	76.834	177.2
57	78.491	135.18
58	79.978	108.52
59	81.023	91.215
60	81.771	80.213
61	82.141	74.401
62	82.265	70.386
63	82.149	67.634
64	81.937	65.761
65	81.813	63.506
66	81.735	61.058
67	81.737	58.51
68	81.751	55.488
69	81.779	52.414
70	81.819	49.608
71	82.011	47.089
72	82.328	45.199
73	82.645	44.007
74	82.915	43.488
75	83.045	44.298
76	83.077	45.614
77	83.072	47.375
78	83.054	49.455
79	83.032	51.591
80	82.984	53.459
81	82.891	54.957
82	82.821	55.824
83	82.802	65.368
84	82.812	73.819
85	82.81	81.061
86	82.799	86.686
87	82.802	90.965
88	82.799	94.282
89	82.889	96.595
90	83.067	98.502
91	83.25	91.791
92	83.431	86.543
93	83.517	82.656
94	83.54	79.875
95	83.568	77.856
96	83.573	76.263
97	83.587	74.925
98	83.646	73.656
99	83.665	77.397
100	83.697	81.076
101	83.714	84.501
102	83.69	87.715
103	83.693	90.892
104	83.642	94.138
105	83.606	97.272
106	83.603	100.24
107	83.62	93.581
108	83.65	86.865
109	83.675	80.202
110	83.671	73.5
111	83.694	66.71
112	83.683	59.831
113	83.676	53.022
114	83.673	46.343
115	83.657	50.311
116	83.678	54.46
117	83.721	58.885
118	83.775	63.789
119	83.752	69.234
120	83.722	75.153
121	83.707	81.167
122	83.651	86.992
123	83.602	84.194
124	83.555	80.682
125	83.521	76.595
126	83.517	72.102
127	83.535	67.367
128	83.622	62.554
129	83.699	57.876
130	83.746	53.562
131	83.755	52.014
132	83.76	50.849
133	83.749	50.187
134	83.764	49.826
135	83.768	49.619
136	83.755	49.444
137	83.737	49.228
138	83.705	48.874
139	83.676	49.228
140	83.639	49.348
141	83.606	49.182
142	83.579	48.738
143	83.541	48.069
144	83.553	47.282
145	83.599	46.559
146	83.65	46.061
147	83.682	45.721
148	83.697	45.644
149	83.658	45.733
150	83.624	45.905
151	83.578	46.058
152	83.482	46.094
153	83.408	45.977
154	83.348	45.655
155	83.324	45.577
156	83.343	45.284
157	83.363	44.851
158	83.426	44.319
159	83.459	43.76
160	83.463	43.194
161	83.48	42.695
162	83.52	42.289
163	83.551	42.51
164	83.599	42.891
165	83.617	43.412
166	83.636	44.076
167	83.584	44.866
168	83.537	45.716
169	83.496	46.545
170	83.445	47.352
171	83.397	46.445
172	83.356	45.428
173	83.319	44.304
174	83.286	43.098
175	83.286	41.832
176	83.284	40.528
177	83.246	39.199
178	83.218	37.85
179	83.196	37.442
180	83.149	37.015
181	83.153	36.553
182	83.186	36.083
183	83.254	35.585
184	83.322	35.158
185	83.393	34.778
186	83.431	34.477
187	83.399	35.288
188	83.353	36.213
189	83.304	37.254
190	83.288	38.387
191	83.235	39.589
192	83.198	40.815
193	83.167	42.006
194	83.116	43.139
195	83.077	43.514
196	83.049	43.776
197	82.997	43.932
198	82.933	43.96
199	82.886	43.906
200	82.844	43.792
201	82.858	43.644
202	82.917	43.442
203	83.015	42.251
204	83.098	41.113
205	83.153	40.053
206	83.175	39.109
207	83.151	38.272
208	83.143	37.511
209	83.153	36.845
210	83.16	36.248
211	83.161	37.096
212	83.134	38.017
213	83.095	38.983
214	83.005	39.995
215	82.92	41.012
216	82.846	42.042
217	82.767	43.053
218	82.7	44.027
219	82.632	44.632
220	82.579	45.21
221	82.533	45.716
222	82.491	46.164
223	82.451	46.57
224	82.412	46.906
225	82.394	47.153
226	82.314	47.335
227	82.266	46.164
228	82.203	44.93
229	82.158	43.741
230	82.158	42.492
231	82.223	41.205
232	82.301	39.932
233	82.38	38.662
234	82.444	37.429
235	82.442	37.336
236	82.426	37.264
237	82.386	37.209
238	82.367	37.166
239	82.39	37.136
240	82.444	37.133
241	82.517	37.155
242	82.599	37.172
243	82.614	37.692
244	82.598	38.239
245	82.564	38.817
246	82.526	39.44
247	82.484	40.108
248	82.484	40.798
249	82.503	41.5
250	82.495	42.213
251	82.514	42.091
252	82.495	41.973
253	82.442	41.847
254	82.381	41.744
255	82.323	41.637
256	82.244	41.534
257	82.209	41.438
258	82.178	41.353
259	82.197	41.112
260	82.208	40.852
261	82.229	40.577
262	82.184	40.325
263	82.121	40.074
264	82.05	39.864
265	81.962	39.664
266	81.902	39.516
267	81.827	40.134
268	81.82	40.792
269	81.766	41.479
270	81.764	42.176
271	81.75	42.889
272	81.703	43.61
273	81.644	44.323
274	81.553	45.033
275	81.431	45.727
276	81.306	46.359
277	81.211	47.04
278	81.134	47.618
279	81.082	48.196
280	81.115	48.683
281	81.132	49.189
282	81.16	49.583
283	81.164	48.718
284	81.127	47.807
285	81.056	46.785
286	80.989	45.798
287	80.95	44.835
288	80.955	43.868
289	80.985	42.899
290	81.049	41.978
291	81.095	42.084
292	81.118	42.19
293	81.118	42.306
294	81.036	42.41
295	81	42.549
296	80.977	42.658
297	80.962	42.752
298	80.98	42.847
299	81.04	43.1
300	81.071	43.362
301	81.079	43.667
302	81.036	43.973
303	80.985	44.333
304	80.886	44.751
305	80.828	45.206
306	80.77	45.708
307	80.762	45.546
308	80.757	45.425
309	80.77	45.312
310	80.718	45.195
311	80.654	45.12
312	80.521	45.042
313	80.393	44.967
314	80.238	44.883
315	80.115	44.471
316	80.025	44.04
317	79.985	43.594
318	79.982	43.138
319	80.007	42.706
320	80.019	42.199
321	80.002	41.635
322	79.946	41.006
323	79.858	41.284
324	79.742	41.508
325	79.66	41.646
326	79.655	41.729
327	79.682	41.78
328	79.767	41.836
329	79.872	41.909
330	79.93	42.011
331	79.949	42.31
332	79.902	42.671
333	79.813	43.048
334	79.752	43.439
335	79.679	43.858
336	79.646	44.289
337	79.669	44.738
338	79.7	45.218
339	79.695	44.374
340	79.689	43.551
341	79.582	42.753
342	79.468	41.966
343	79.363	41.18
344	79.269	40.423
345	79.187	39.662
346	79.191	38.929
347	79.199	39.063
348	79.194	39.203
349	79.18	39.35
350	79.113	39.494
351	79.01	39.635
352	78.868	39.779
353	78.724	39.906
354	78.59	40.035
355	78.539	40.857
356	78.525	41.654
357	78.517	42.471
358	78.561	43.278
359	78.579	44.08
360	78.543	44.884
361	78.445	45.666
362	78.305	46.403
363	78.167	45.669
364	78.057	44.889
365	78.019	44.088
366	78.037	43.198
367	78.063	42.315
368	78.133	41.396
369	78.149	40.474
370	78.11	39.561
371	78.034	38.918
372	77.911	38.3
373	77.785	37.732
374	77.699	37.168
375	77.633	36.634
376	77.583	36.126
377	77.525	35.645
378	77.43	35.214
379	77.298	35.877
380	77.11	36.591
381	76.897	37.35
382	76.647	38.159
383	76.374	38.992
384	76.137	39.888
385	75.894	40.805
386	75.634	41.778
387	75.362	42.317
388	75.039	42.894
389	74.645	43.47
390	74.178	44.071
391	73.684	44.714
392	73.122	45.386
393	72.561	46.067
394	71.987	46.752
395	71.44	46.237
396	70.886	45.675
397	70.274	45.063
398	69.609	44.412
399	68.862	43.741
400	67.993	43.068